27

17 20
13
8 18
4 8
10 15
5 11
16 16
9 18
0 9
4 7
15 1
8 9
13 11
11 1
16 3
9 3

18 13
15
2 10
14 9
5 0
2 5
3 2
8 5
5 11
15 0
4 5
1 9
10 11
14 2
7 8
0 7
11 2
3 3

20 19
13
7 1
0 15
7 14
7 4
7 4
9 11
12 18
6 0
3 6
4 15
17 14
9 4
18 9
5 3

16 14
19
0 2
2 6
15 1
14 10
8 0
1 9
8 1
9 6
3 7
12 12
13 13
8 5
7 10
9 9
5 7
0 9
4 10
0 0
1 3
9 2

10 14
14
7 7
2 10
9 6
7 13
1 6
8 11
2 5
2 6
2 8
9 9
8 6
7 13
6 2
6 4
3 3

20 14
10
16 6
10 11
19 7
10 1
10 0
15 2
12 2
12 8
9 10
0 9
2 2

19 12
12
8 5
8 8
10 5
1 9
7 2
2 8
0 7
8 6
12 0
17 9
13 4
13 2
2 3

14 19
16
11 16
9 18
9 5
0 3
8 3
13 7
10 13
1 14
11 2
1 6
5 9
8 5
9 5
13 14
7 6
12 7
2 3

16 12
15
1 1
13 6
1 6
10 8
7 3
4 6
5 1
7 1
13 7
12 10
5 2
6 9
1 5
6 7
6 1
4 1

16 19
18
1 2
8 17
13 9
11 14
7 13
4 12
2 11
4 17
4 18
12 6
8 7
14 11
8 5
4 16
9 0
13 6
13 18
3 11
8 3

11 18
14
10 15
3 17
9 2
9 7
6 5
1 12
6 5
7 17
9 13
3 17
9 5
1 0
3 10
1 13
4 1

13 11
11
0 8
9 1
5 8
9 8
7 6
2 0
8 10
11 9
12 7
9 3
11 2
5 1

18 16
15
16 7
15 2
1 13
12 1
7 1
1 8
16 14
11 11
7 5
4 8
16 10
9 0
1 15
3 10
2 2
3 1

20 16
11
9 6
7 2
4 13
4 10
15 2
4 15
3 9
9 12
9 8
6 11
3 10
8 1

10 16
18
9 1
0 6
2 15
2 10
3 15
0 7
0 12
3 14
0 15
3 1
8 14
7 1
4 1
6 4
6 10
7 0
4 5
2 6
9 1

10 11
13
7 0
9 6
2 10
4 5
3 3
5 7
0 7
4 1
9 4
2 7
6 3
6 6
0 7
10 2

15 18
16
10 7
8 16
14 13
6 16
13 16
9 3
12 10
5 13
13 4
12 2
10 16
10 12
7 9
14 3
4 11
14 1
8 2

18 13
12
14 5
17 0
9 7
0 10
12 3
15 9
16 0
4 5
12 0
13 10
16 6
16 9
4 2

18 20
12
11 3
0 9
4 6
3 12
13 11
10 18
2 5
1 1
13 14
10 19
9 6
11 14
10 1

11 16
20
6 2
3 13
8 0
2 12
2 5
3 10
7 0
0 2
2 9
7 3
9 0
10 5
1 7
6 4
0 9
8 6
1 2
3 12
8 2
0 6
7 1

15 13
10
6 0
5 7
3 8
14 12
3 12
0 5
12 2
3 3
9 4
7 8
9 2

10 14
10
9 1
5 7
1 13
1 6
7 9
9 7
0 7
4 1
3 13
4 13
8 3

18 18
20
15 8
8 13
15 3
10 13
9 17
7 12
16 10
5 8
2 4
3 7
13 11
14 4
11 0
12 15
10 0
10 12
8 11
17 9
17 6
6 12
4 1

20 17
11
9 16
9 13
4 3
19 16
13 13
19 10
9 11
16 13
4 13
1 5
1 10
10 2

16 10
17
3 1
5 8
11 4
3 2
0 6
4 1
3 3
12 7
14 9
0 9
10 9
12 5
13 8
9 7
13 1
7 0
4 8
4 2

11 19
16
1 14
7 10
5 15
8 15
4 7
4 12
1 7
1 16
8 2
10 12
2 0
3 15
6 14
6 6
6 5
10 10
4 3

18 15
16
9 5
6 7
16 10
0 5
4 14
9 12
3 9
1 14
5 4
3 11
12 3
5 12
1 11
15 13
11 7
10 13
4 1
